Beer Study | Erica Brooks
…
##     ABV State
## 1 0.045    MN
## 2 0.049    MN
## 3 0.048    MN
## 4 0.060    MN
## 5 0.060    MN
## 6 0.056    MN
 
#Get the state with maximum alcoholic beer
max_ABV <- ABV.Data %>% group_by(State) %>%
  slice_max(ABV, n=1)
max_ABV
 
## # A tibble: 65 × 2
## # Groups:   State [51]
##      ABV State
##    <dbl> <chr>
##  1 0.068 AK   
##  2 0.093 AL   
##  3 0.061 AR   
##  4 0.095 AZ   
##  5 0.099 CA   
##  6 0.099 CA   
##  7 0.099 CA   
##  8 0.099 CA   
##  9 0.128 CO   
## 10 0.09  CT   
## # ℹ 55 more rows
 
#Remove duplicate values
max_ABV <- distinct(max_ABV, ABV, State, .keep_all= TRUE)
max_ABV
 
## # A tibble: 51 × 2
## # Groups:   State [51]
##      ABV State
##    <dbl> <chr>
##  1 0.068 AK   
##  2 0.093 AL   
##  3 0.061 AR   
##  4 0.095 AZ   
##  5 0.099 CA   
##  6 0.128 CO   
##  7 0.09  CT   
##  8 0.092 DC   
##  9 0.055 DE   
## 10 0.082 FL   
## # ℹ 41 more rows
…
##   IBU State
## 1  50    MN
## 2  26    MN
## 3  19    MN
## 4  38    MN
## 5  25    MN
## 6  47    MN
 
#Get the maximum value of IBU for each state
max_IBU <- IBU.Data %>% group_by(State) %>%
  slice_max(IBU, n=1)
max_IBU
 
## # A tibble: 67 × 2
## # Groups:   State [51]
##      IBU State
##    <dbl> <chr>
##  1    71 AK   
##  2   103 AL   
##  3    39 AR   
##  4    99 AZ   
##  5   115 CA   
##  6   104 CO   
##  7    85 CT   
##  8    85 CT   
##  9   115 DC   
## 10    52 DE   
## # ℹ 57 more rows
 
#Remove duplicate values
max_IBU <- distinct(max_IBU, IBU, State, .keep_all= TRUE)
max_IBU
 
## # A tibble: 51 × 2
## # Groups:   State [51]
##      IBU State
##    <dbl> <chr>
##  1    71 AK   
##  2   103 AL   
##  3    39 AR   
##  4    99 AZ   
##  5   115 CA   
##  6   104 CO   
##  7    85 CT   
##  8   115 DC   
##  9    52 DE   
## 10    82 FL   
## # ℹ 41 more rows
…
